…
But what if we only want `"sales"` for residential customers in Vermont?
This is where `facets` come in, and we can obtain specific values for facets by
way of `eia_facets`.

Remember, `eia_metadata()` provided us with the facet ids (`"stateid"`, `"sectorid"`)
needed to obtain the facet values.


```r
# State / Region
eia_facets("electricity/retail-sales", "stateid")
```

```
## # A tibble: 62 × 3
##    id    name               alias                           
##    <chr> <chr>              <chr>                           
##  1 MA    Massachusetts      (MA) Massachusetts              
##  2 VT    Vermont            (VT) Vermont                    
##  3 WA    Washington         (WA) Washington                 
##  4 ENC   East North Central Region: (ENC) East North Central
##  5 WNC   West North Central Region: (WNC) West North Central
##  6 NC    North Carolina     (NC) North Carolina             
##  7 HI    Hawaii             (HI) Hawaii                     
##  8 MD    Maryland           (MD) Maryland                   
##  9 NM    New Mexico         (NM) New Mexico                 
## 10 MTN   Mountain           Region: (MTN) Mountain          
## # … with 52 more rows
```
…
Note that the `facets` argument requires a named list with the proper facet IDs
discovered above.


```r
eia_data(
  dir = "electricity/retail-sales",
  data = "sales",
  facets = list(stateid = "OH", sectorid = "RES")
)
```

```
## # A tibble: 271 × 7
##    period  stateid stateDescription sectorid sectorName  sales `sales-units`        
##    <chr>   <chr>   <chr>            <chr>    <chr>       <dbl> <chr>                
##  1 2016-05 OH      Ohio             RES      residential 3374. million kilowatthours
##  2 2013-11 OH      Ohio             RES      residential 4032. million kilowatthours
##  3 2023-03 OH      Ohio             RES      residential 4347. million kilowatthours
##  4 2013-12 OH      Ohio             RES      residential 5201. million kilowatthours
##  5 2017-03 OH      Ohio             RES      residential 4118. million kilowatthours
##  6 2016-11 OH      Ohio             RES      residential 3471. million kilowatthours
##  7 2015-09 OH      Ohio             RES      residential 4148. million kilowatthours
##  8 2013-07 OH      Ohio             RES      residential 5117. million kilowatthours
##  9 2019-07 OH      Ohio             RES      residential 5804. million kilowatthours
## 10 2019-04 OH      Ohio             RES      residential 3263. million kilowatthours
## # … with 261 more rows
```
But what if we want both sales and price?
Further, what if we also want multiple sectors, say, residential and commercial?
We can simply concatenate these entries with `c()`


```r
(d <- eia_data(
  dir = "electricity/retail-sales",
  data = c("sales", "price"),
  facets = list(stateid = "OH", sectorid = c("RES", "COM"))
))
```

```
## # A tibble: 542 × 9
##    period  stateid stateDescription sectorid sectorName  sales price `sales-units`         `price-units`         
##    <chr>   <chr>   <chr>            <chr>    <chr>       <dbl> <dbl> <chr>                 <chr>                 
##  1 2016-05 OH      Ohio             COM      commercial  3900. 10    million kilowatthours cents per kilowatthour
##  2 2016-05 OH      Ohio             RES      residential 3374. 13.2  million kilowatthours cents per kilowatthour
##  3 2013-11 OH      Ohio             COM      commercial  3638.  9.32 million kilowatthours cents per kilowatthour
##  4 2013-11 OH      Ohio             RES      residential 4032. 12.0  million kilowatthours cents per kilowatthour
##  5 2023-03 OH      Ohio             COM      commercial  3868. 10.4  million kilowatthours cents per kilowatthour
##  6 2023-03 OH      Ohio             RES      residential 4347. 14.9  million kilowatthours cents per kilowatthour
##  7 2013-12 OH      Ohio             COM      commercial  3823.  9.06 million kilowatthours cents per kilowatthour
##  8 2013-12 OH      Ohio             RES      residential 5201. 11.3  million kilowatthours cents per kilowatthour
##  9 2017-03 OH      Ohio             COM      commercial  3857. 10.2  million kilowatthours cents per kilowatthour
## 10 2017-03 OH      Ohio             RES      residential 4118. 12.6  million kilowatthours cents per kilowatthour
## # … with 532 more rows
```
…
