…
In the example below using total electricity generation, get the last two data points for each of and two US states. `dplyr` and `tidyr` are used here to clean up the result a bit for purposes of display. `gpplot2` is used to graph the data after it has been unnested for each state.


```r
id <- c("ELEC.GEN.ALL-99.M") # monthly
region <- c("USA-CA", "USA-NY")
(x <- eia_geoset(id, region, start = "201801", end = "201812"))
#> # A tibble: 2 x 11
#>   geoset_id      setname                        f     units          series_id       name                               region latlon start end   data       
#> * <chr>          <chr>                          <chr> <chr>          <chr>           <chr>                              <chr>  <chr>  <chr> <chr> <list>     
#> 1 ELEC.GEN.ALL-~ Net generation : all fuels : ~ M     thousand mega~ ELEC.GEN.ALL-C~ Net generation : all fuels : Cali~ USA-CA <NA>   2001~ 2020~ <tibble [1~
#> 2 ELEC.GEN.ALL-~ Net generation : all fuels : ~ M     thousand mega~ ELEC.GEN.ALL-N~ Net generation : all fuels : New ~ USA-NY <NA>   2001~ 2020~ <tibble [1~

select(x, region, data) %>% unnest(cols = data)
#> # A tibble: 24 x 5
#>    region  value date        year month
#>    <chr>   <dbl> <date>     <int> <int>
#>  1 USA-CA 14346. 2018-12-01  2018    12
#>  2 USA-CA 14587. 2018-11-01  2018    11
#>  3 USA-CA 16844. 2018-10-01  2018    10
#>  4 USA-CA 17574. 2018-09-01  2018     9
#>  5 USA-CA 20972. 2018-08-01  2018     8
#>  6 USA-CA 22332. 2018-07-01  2018     7
#>  7 USA-CA 17500. 2018-06-01  2018     6
#>  8 USA-CA 15922. 2018-05-01  2018     5
#>  9 USA-CA 14800. 2018-04-01  2018     4
#> 10 USA-CA 14024. 2018-03-01  2018     3
#> # ... with 14 more rows
…
region <- "Middle Atlantic"
x <- eia_geoset(id, region, n = 12)
select(x, region, data) %>% unnest(cols = data)
#> # A tibble: 36 x 5
#>    region value date        year month
#>    <chr>  <dbl> <date>     <int> <int>
#>  1 USA-NJ 4928. 2020-02-01  2020     2
#>  2 USA-NJ 5497. 2020-01-01  2020     1
#>  3 USA-NJ 6302. 2019-12-01  2019    12
#>  4 USA-NJ 5586. 2019-11-01  2019    11
#>  5 USA-NJ 5715. 2019-10-01  2019    10
#>  6 USA-NJ 6144. 2019-09-01  2019     9
#>  7 USA-NJ 6878. 2019-08-01  2019     8
#>  8 USA-NJ 7468. 2019-07-01  2019     7
#>  9 USA-NJ 5740. 2019-06-01  2019     6
#> 10 USA-NJ 4909. 2019-05-01  2019     5
#> # ... with 26 more rows
…
