…
And finally coal.


```r
(x <- eia_cats(738))
#> $category
#> # A tibble: 1 x 4
#>   category_id parent_category_id name  notes
#>   <chr>       <chr>              <chr> <chr>
#> 1 738         388                Coal  ""   
#> 
#> $childseries
#> # A tibble: 174 x 5
#>    series_id                     name                                                                           f     units         updated              
#>    <chr>                         <chr>                                                                          <chr> <chr>         <chr>                
#>  1 ELEC.CONS_TOT_BTU.COW-AK-98.A Total consumption (Btu) : coal : Alaska : electric power (total) : annual      A     million MMBtu 27-OCT-20 06.46.54 PM
#>  2 ELEC.CONS_TOT_BTU.COW-AK-98.M Total consumption (Btu) : coal : Alaska : electric power (total) : monthly     M     million MMBtu 27-OCT-20 06.46.54 PM
#>  3 ELEC.CONS_TOT_BTU.COW-AK-98.Q Total consumption (Btu) : coal : Alaska : electric power (total) : quarterly   Q     million MMBtu 27-OCT-20 06.46.54 PM
#>  4 ELEC.CONS_TOT_BTU.COW-AL-98.A Total consumption (Btu) : coal : Alabama : electric power (total) : annual     A     million MMBtu 27-OCT-20 06.46.54 PM
#>  5 ELEC.CONS_TOT_BTU.COW-AL-98.M Total consumption (Btu) : coal : Alabama : electric power (total) : monthly    M     million MMBtu 27-OCT-20 06.46.54 PM
#>  6 ELEC.CONS_TOT_BTU.COW-AL-98.Q Total consumption (Btu) : coal : Alabama : electric power (total) : quarterly  Q     million MMBtu 27-OCT-20 06.46.54 PM
#>  7 ELEC.CONS_TOT_BTU.COW-AR-98.A Total consumption (Btu) : coal : Arkansas : electric power (total) : annual    A     million MMBtu 27-OCT-20 06.46.54 PM
#>  8 ELEC.CONS_TOT_BTU.COW-AR-98.M Total consumption (Btu) : coal : Arkansas : electric power (total) : monthly   M     million MMBtu 27-OCT-20 06.46.54 PM
#>  9 ELEC.CONS_TOT_BTU.COW-AR-98.Q Total consumption (Btu) : coal : Arkansas : electric power (total) : quarterly Q     million MMBtu 27-OCT-20 06.46.54 PM
#> 10 ELEC.CONS_TOT_BTU.COW-AZ-98.A Total consumption (Btu) : coal : Arizona : electric power (total) : annual     A     million MMBtu 27-OCT-20 06.46.54 PM
#> # ... with 164 more rows
```
…
#> # A tibble: 3 x 12
#>   series_id        name                         units    f     description                               copyright source            iso3166 geography start end   updated     
#>   <chr>            <chr>                        <chr>    <chr> <chr>                                     <chr>     <chr>             <chr>   <chr>     <chr> <chr> <chr>       
#> 1 ELEC.CONS_TOT_B~ Total consumption (Btu) : c~ million~ A     "Summation of all types of coal; Power p~ None      EIA, U.S. Energy~ USA-AK  USA-AK    2001  2019  2020-10-27T~
#> 2 ELEC.CONS_TOT_B~ Total consumption (Btu) : c~ million~ M     "Summation of all types of coal; Power p~ None      EIA, U.S. Energy~ USA-AK  USA-AK    2001~ 2020~ 2020-10-27T~
#> 3 ELEC.CONS_TOT_B~ Total consumption (Btu) : c~ million~ Q     "Summation of all types of coal; Power p~ None      EIA, U.S. Energy~ USA-AK  USA-AK    2001~ 2020~ 2020-10-27T~
eia_series_updates(id)
#> # A tibble: 3 x 2
#>   series_id                     updated                 
#>   <chr>                         <chr>                   
#> 1 ELEC.CONS_TOT_BTU.COW-AK-98.A 2020-10-27T18:46:54-0400
#> 2 ELEC.CONS_TOT_BTU.COW-AK-98.M 2020-10-27T18:46:54-0400
#> 3 ELEC.CONS_TOT_BTU.COW-AK-98.Q 2020-10-27T18:46:54-0400
eia_series_dates(id)
#> # A tibble: 333 x 4
#>    series_id                     date       eiadate date_format
#>    <chr>                         <date>     <chr>   <chr>      
#>  1 ELEC.CONS_TOT_BTU.COW-AK-98.A 2001-01-01 2001    A          
#>  2 ELEC.CONS_TOT_BTU.COW-AK-98.A 2002-01-01 2002    A          
#>  3 ELEC.CONS_TOT_BTU.COW-AK-98.A 2003-01-01 2003    A          
#>  4 ELEC.CONS_TOT_BTU.COW-AK-98.A 2004-01-01 2004    A          
#>  5 ELEC.CONS_TOT_BTU.COW-AK-98.A 2005-01-01 2005    A          
#>  6 ELEC.CONS_TOT_BTU.COW-AK-98.A 2006-01-01 2006    A          
#>  7 ELEC.CONS_TOT_BTU.COW-AK-98.A 2007-01-01 2007    A          
#>  8 ELEC.CONS_TOT_BTU.COW-AK-98.A 2008-01-01 2008    A          
#>  9 ELEC.CONS_TOT_BTU.COW-AK-98.A 2009-01-01 2009    A          
#> 10 ELEC.CONS_TOT_BTU.COW-AK-98.A 2010-01-01 2010    A          
#> # ... with 323 more rows
…
