Package overview • eia
…
Geosets are metadata structures organizing time series datasets that can be mapped. Arguments to eia_geoset are the same as eia_series with the addition of region. Like id, region can be a vector. Most of the details are the same as before.

In the example below using total electricity generation, get the last two data points for each of and two US states. dplyr and tidyr are used here to clean up the result a bit for purposes of display. gpplot2 is used to graph the data after it has been unnested for each state.

id <- c("ELEC.GEN.ALL-99.M") # monthly
region <- c("USA-CA", "USA-NY")
(x <- eia_geoset(id, region, start = "201801", end = "201812"))
#> # A tibble: 2 x 11
#>   geoset_id       setname                             f     units            series_id        name                                       region latlon start end   data        
#>   <chr>           <chr>                               <chr> <chr>            <chr>            <chr>                                      <chr>  <chr>  <chr> <chr> <list>      
#> 1 ELEC.GEN.ALL-9~ Net generation : all fuels : all s~ M     thousand megawa~ ELEC.GEN.ALL-CA~ Net generation : all fuels : California :~ USA-CA <NA>   2001~ 2020~ <tibble [12~
#> 2 ELEC.GEN.ALL-9~ Net generation : all fuels : all s~ M     thousand megawa~ ELEC.GEN.ALL-NY~ Net generation : all fuels : New York : a~ USA-NY <NA>   2001~ 2020~ <tibble [12~

select(x, region, data) %>% unnest(cols = data)
#> # A tibble: 24 x 5
#>    region  value date        year month
#>    <chr>   <dbl> <date>     <int> <int>
#>  1 USA-CA 14364. 2018-12-01  2018    12
#>  2 USA-CA 14605. 2018-11-01  2018    11
#>  3 USA-CA 16864. 2018-10-01  2018    10
#>  4 USA-CA 17592. 2018-09-01  2018     9
#>  5 USA-CA 20994. 2018-08-01  2018     8
#>  6 USA-CA 22356. 2018-07-01  2018     7
#>  7 USA-CA 17514. 2018-06-01  2018     6
#>  8 USA-CA 15932. 2018-05-01  2018     5
#>  9 USA-CA 14811. 2018-04-01  2018     4
#> 10 USA-CA 14039. 2018-03-01  2018     3
#> # ... with 14 more rows
…
region <- "Middle Atlantic"
x <- eia_geoset(id, region, n = 12)
select(x, region, data) %>% unnest(cols = data)
#> # A tibble: 36 x 5
#>    region value date        year month
#>    <chr>  <dbl> <date>     <int> <int>
#>  1 USA-NJ 6639. 2020-08-01  2020     8
#>  2 USA-NJ 7385. 2020-07-01  2020     7
#>  3 USA-NJ 5721. 2020-06-01  2020     6
#>  4 USA-NJ 4169. 2020-05-01  2020     5
#>  5 USA-NJ 4334. 2020-04-01  2020     4
#>  6 USA-NJ 4469. 2020-03-01  2020     3
#>  7 USA-NJ 4912. 2020-02-01  2020     2
#>  8 USA-NJ 5488. 2020-01-01  2020     1
#>  9 USA-NJ 6193. 2019-12-01  2019    12
#> 10 USA-NJ 5510. 2019-11-01  2019    11
#> # ... with 26 more rows
…
