EIA time series data • eia
…
And finally coal.

(x <- eia_cats(738))
#> $category
#> # A tibble: 1 x 4
#>   category_id parent_category_id name  notes
#>   <chr>       <chr>              <chr> <chr>
#> 1 738         388                Coal  ""   
#> 
#> $childseries
#> # A tibble: 174 x 5
#>    series_id                     name                                                                           f     units         updated              
#>    <chr>                         <chr>                                                                          <chr> <chr>         <chr>                
#>  1 ELEC.CONS_TOT_BTU.COW-AK-98.A Total consumption (Btu) : coal : Alaska : electric power (total) : annual      A     million MMBtu 23-MAR-20 06.31.14 PM
#>  2 ELEC.CONS_TOT_BTU.COW-AK-98.M Total consumption (Btu) : coal : Alaska : electric power (total) : monthly     M     million MMBtu 24-APR-20 04.14.48 PM
#>  3 ELEC.CONS_TOT_BTU.COW-AK-98.Q Total consumption (Btu) : coal : Alaska : electric power (total) : quarterly   Q     million MMBtu 23-MAR-20 06.31.14 PM
#>  4 ELEC.CONS_TOT_BTU.COW-AL-98.A Total consumption (Btu) : coal : Alabama : electric power (total) : annual     A     million MMBtu 23-MAR-20 06.31.14 PM
#>  5 ELEC.CONS_TOT_BTU.COW-AL-98.M Total consumption (Btu) : coal : Alabama : electric power (total) : monthly    M     million MMBtu 24-APR-20 04.14.48 PM
#>  6 ELEC.CONS_TOT_BTU.COW-AL-98.Q Total consumption (Btu) : coal : Alabama : electric power (total) : quarterly  Q     million MMBtu 23-MAR-20 06.31.14 PM
#>  7 ELEC.CONS_TOT_BTU.COW-AR-98.A Total consumption (Btu) : coal : Arkansas : electric power (total) : annual    A     million MMBtu 23-MAR-20 06.31.14 PM
#>  8 ELEC.CONS_TOT_BTU.COW-AR-98.M Total consumption (Btu) : coal : Arkansas : electric power (total) : monthly   M     million MMBtu 24-APR-20 04.14.48 PM
#>  9 ELEC.CONS_TOT_BTU.COW-AR-98.Q Total consumption (Btu) : coal : Arkansas : electric power (total) : quarterly Q     million MMBtu 23-MAR-20 06.31.14 PM
#> 10 ELEC.CONS_TOT_BTU.COW-AZ-98.A Total consumption (Btu) : coal : Arizona : electric power (total) : annual     A     million MMBtu 23-MAR-20 06.31.14 PM
#> # ... with 164 more rows
…
#> # A tibble: 3 x 12
#>   series_id      name                    units   f     description                         copyright source         iso3166 geography start end   updated    
#>   <chr>          <chr>                   <chr>   <chr> <chr>                               <chr>     <chr>          <chr>   <chr>     <chr> <chr> <chr>      
#> 1 ELEC.CONS_TOT~ Total consumption (Btu~ millio~ A     "Summation of all types of coal; P~ None      EIA, U.S. Ene~ USA-AK  USA-AK    2001  2019  2020-03-23~
#> 2 ELEC.CONS_TOT~ Total consumption (Btu~ millio~ M     "Summation of all types of coal; P~ None      EIA, U.S. Ene~ USA-AK  USA-AK    2001~ 2020~ 2020-04-24~
#> 3 ELEC.CONS_TOT~ Total consumption (Btu~ millio~ Q     "Summation of all types of coal; P~ None      EIA, U.S. Ene~ USA-AK  USA-AK    2001~ 2019~ 2020-03-23~
eia_series_updates(id)
#> # A tibble: 3 x 2
#>   series_id                     updated                 
#>   <chr>                         <chr>                   
#> 1 ELEC.CONS_TOT_BTU.COW-AK-98.A 2020-03-23T18:31:14-0400
#> 2 ELEC.CONS_TOT_BTU.COW-AK-98.M 2020-04-24T16:14:48-0400
#> 3 ELEC.CONS_TOT_BTU.COW-AK-98.Q 2020-03-23T18:31:14-0400
eia_series_dates(id)
#> # A tibble: 325 x 4
#>    series_id                     date       eiadate date_format
#>  * <chr>                         <date>     <chr>   <chr>      
#>  1 ELEC.CONS_TOT_BTU.COW-AK-98.A 2001-01-01 2001    A          
#>  2 ELEC.CONS_TOT_BTU.COW-AK-98.A 2002-01-01 2002    A          
#>  3 ELEC.CONS_TOT_BTU.COW-AK-98.A 2003-01-01 2003    A          
#>  4 ELEC.CONS_TOT_BTU.COW-AK-98.A 2004-01-01 2004    A          
#>  5 ELEC.CONS_TOT_BTU.COW-AK-98.A 2005-01-01 2005    A          
#>  6 ELEC.CONS_TOT_BTU.COW-AK-98.A 2006-01-01 2006    A          
#>  7 ELEC.CONS_TOT_BTU.COW-AK-98.A 2007-01-01 2007    A          
#>  8 ELEC.CONS_TOT_BTU.COW-AK-98.A 2008-01-01 2008    A          
#>  9 ELEC.CONS_TOT_BTU.COW-AK-98.A 2009-01-01 2009    A          
#> 10 ELEC.CONS_TOT_BTU.COW-AK-98.A 2010-01-01 2010    A          
#> # ... with 315 more rows
…
